{"cinemas":[{"id":13895,"mark":0,"nm":"中影星美国际影城（周祝店）","sellPrice":"35","addr":"浦东新区周祝公路268弄1号369室（绿地乐和城）","distance":"751.4km","tag":{"allowRefund":1,"buyout":0,"cityCardTag":0,"deal":0,"endorse":1,"giftTag":"","hallType":[],"hallTypeVOList":[],"sell":1,"snack":1,"vipTag":"折扣卡"},"promotion":{"cardPromotionTag":"","couponPromotionTag":"","merchantActivityTag":"","packShowActivityTag":"","platformActivityTag":"","starActivityTag":""},"showTimes":""},{"id":24470,"mark":0,"nm":"百丽宫影城（长宁来福士店）","sellPrice":"129","addr":"长宁区长宁路1123号长宁来福士7层701-703","distance":"729.1km","tag":{"allowRefund":1,"buyout":0,"cityCardTag":0,"deal":0,"endorse":1,"giftTag":"","hallType":["LUXE巨幕厅"],"hallTypeVOList":[{"name":"LUXE巨幕厅","url":""}],"sell":1,"snack":1,"vipTag":""},"promotion":{"cardPromotionTag":"","couponPromotionTag":"","merchantActivityTag":"","packShowActivityTag":"","platformActivityTag":"","starActivityTag":""},"showTimes":""},{"id":232,"mark":0,"nm":"UA电影城（上海梅龙镇广场店）","sellPrice":"","addr":"静安区南京西路1038号梅龙镇广场10楼（近江宁路）","distance":"732.1km","tag":{"allowRefund":1,"buyout":0,"cityCardTag":0,"deal":0,"endorse":1,"giftTag":"","hallType":[],"hallTypeVOList":[],"sell":1,"snack":1,"vipTag":"折扣卡"},"promotion":{"cardPromotionTag":"开卡特惠，首单2张最高立减2元","couponPromotionTag":"","merchantActivityTag":"","packShowActivityTag":"","platformActivityTag":"","starActivityTag":""},"showTimes":""},{"id":52,"mark":0,"nm":"左岸国际电影城（松江沃尔玛店）","sellPrice":"","addr":"松江区松汇中路568号鹿都沃尔玛广场4楼（近庙前街）","distance":"725.4km","tag":{"allowRefund":1,"buyout":0,"cityCardTag":0,"deal":0,"endorse":1,"giftTag":"","hallType":[],"hallTypeVOList":[],"sell":1,"snack":1,"vipTag":"折扣卡"},"promotion":{"cardPromotionTag":"开卡特惠，首单2张最高立减4元","couponPromotionTag":"","merchantActivityTag":"","packShowActivityTag":"","platformActivityTag":"","starActivityTag":""},"showTimes":""},{"id":115,"mark":0,"nm":"大地影院（大华乐购店）","sellPrice":"","addr":"宝山区大华路518号4楼（华润万家4楼）","distance":"726.3km","tag":{"allowRefund":1,"buyout":0,"cityCardTag":0,"deal":0,"endorse":1,"giftTag":"","hallType":[],"hallTypeVOList":[],"sell":1,"snack":0,"vipTag":"折扣卡"},"promotion":{"cardPromotionTag":"开卡特惠，首单1张最高立减10元","couponPromotionTag":"","merchantActivityTag":"","packShowActivityTag":"","platformActivityTag":"","starActivityTag":""},"showTimes":""},{"id":33,"mark":0,"nm":"AMG海上明珠影城（上海莘庄店）","sellPrice":"","addr":"闵行区沪闵路6088号莘庄凯德龙之梦购物中心4楼（近莘建路）","distance":"731.7km","tag":{"allowRefund":1,"buyout":0,"cityCardTag":0,"deal":0,"endorse":1,"giftTag":"","hallType":["RealD厅","4D厅"],"hallTypeVOList":[{"name":"RealD厅","url":""},{"name":"4D厅","url":""}],"sell":1,"snack":1,"vipTag":"折扣卡"},"promotion":{"cardPromotionTag":"开卡特惠，首单2张最高立减6元","couponPromotionTag":"","merchantActivityTag":"","packShowActivityTag":"","platformActivityTag":"","starActivityTag":""},"showTimes":""},{"id":161,"mark":0,"nm":"嘉定影剧院","sellPrice":"","addr":"嘉定区城中路149号（城中路人民街）","distance":"706.5km","tag":{"allowRefund":1,"buyout":0,"cityCardTag":0,"deal":0,"endorse":1,"giftTag":"","hallType":["杜比全景声厅","4D厅"],"hallTypeVOList":[{"name":"杜比全景声厅","url":""},{"name":"4D厅","url":""}],"sell":1,"snack":1,"vipTag":"折扣卡"},"promotion":{"cardPromotionTag":"","couponPromotionTag":"","merchantActivityTag":"","packShowActivityTag":"","platformActivityTag":"","starActivityTag":""},"showTimes":""},{"id":12,"mark":0,"nm":"万达影城（江桥万达广场店）","sellPrice":"","addr":"嘉定区金沙江西路1075号江桥万达商业广场3楼（近金运路）","distance":"720.1km","tag":{"allowRefund":1,"buyout":0,"cityCardTag":0,"deal":0,"endorse":1,"giftTag":"","hallType":["IMAX厅","4DX厅"],"hallTypeVOList":[{"name":"IMAX厅","url":""},{"name":"4DX厅","url":""}],"sell":1,"snack":1,"vipTag":"折扣卡"},"promotion":{"cardPromotionTag":"开卡特惠，14.9元起开卡","couponPromotionTag":"","merchantActivityTag":"","packShowActivityTag":"","platformActivityTag":"","starActivityTag":""},"showTimes":""},{"id":147,"mark":0,"nm":"大地影院（弘基广场店）","sellPrice":"","addr":"宝山区聚丰园路57弄3号弘基文化休闲广场1号楼商场3楼（近上海大学）","distance":"721.7km","tag":{"allowRefund":1,"buyout":0,"cityCardTag":0,"deal":0,"endorse":1,"giftTag":"","hallType":[],"hallTypeVOList":[],"sell":1,"snack":0,"vipTag":"折扣卡"},"promotion":{"cardPromotionTag":"开卡特惠，首单1张最高立减10元","couponPromotionTag":"","merchantActivityTag":"","packShowActivityTag":"","platformActivityTag":"","starActivityTag":""},"showTimes":""},{"id":2444,"mark":0,"nm":"万达影城（宝山万达广场店）","sellPrice":"","addr":"宝山区一二八纪念路936号5楼（万达广场2号门直达电梯可到）","distance":"726.5km","tag":{"allowRefund":1,"buyout":0,"cityCardTag":0,"deal":0,"endorse":1,"giftTag":"","hallType":["IMAX厅","4DX厅"],"hallTypeVOList":[{"name":"IMAX厅","url":""},{"name":"4DX厅","url":""}],"sell":1,"snack":1,"vipTag":"折扣卡"},"promotion":{"cardPromotionTag":"开卡特惠，14.9元起开卡","couponPromotionTag":"","merchantActivityTag":"","packShowActivityTag":"","platformActivityTag":"","starActivityTag":""},"showTimes":""},{"id":171,"mark":0,"nm":"黄浦剧场","sellPrice":"","addr":"黄浦区北京东路780号（近贵州路）","distance":"733.2km","tag":{"allowRefund":1,"buyout":0,"cityCardTag":0,"deal":0,"endorse":1,"giftTag":"","hallType":[],"hallTypeVOList":[],"sell":1,"snack":0,"vipTag":"折扣卡"},"promotion":{"cardPromotionTag":"开卡特惠，首单2张最高立减6元","couponPromotionTag":"","merchantActivityTag":"","packShowActivityTag":"","platformActivityTag":"","starActivityTag":""},"showTimes":""},{"id":162,"mark":0,"nm":"新光影艺苑","sellPrice":"","addr":"黄浦区宁波路586号（近广西北路）","distance":"733.3km","tag":{"allowRefund":1,"buyout":0,"cityCardTag":0,"deal":0,"endorse":1,"giftTag":"","hallType":[],"hallTypeVOList":[],"sell":1,"snack":0,"vipTag":"折扣卡"},"promotion":{"cardPromotionTag":"开卡特惠，首单2张最高立减4元","couponPromotionTag":"","merchantActivityTag":"","packShowActivityTag":"","platformActivityTag":"","starActivityTag":""},"showTimes":""},{"id":158,"mark":0,"nm":"崇明影剧院","sellPrice":"","addr":"崇明区八一路488号（近北门路）","distance":"707.7km","tag":{"allowRefund":1,"buyout":0,"cityCardTag":0,"deal":0,"endorse":1,"giftTag":"","hallType":[],"hallTypeVOList":[],"sell":1,"snack":0,"vipTag":"折扣卡"},"promotion":{"cardPromotionTag":"开卡特惠，首单2张最高立减6元","couponPromotionTag":"","merchantActivityTag":"","packShowActivityTag":"","platformActivityTag":"","starActivityTag":""},"showTimes":""},{"id":38,"mark":0,"nm":"比高电影城（南翔店）","sellPrice":"","addr":"嘉定区沪宜公路1082号5幢1楼","distance":"715.8km","tag":{"allowRefund":1,"buyout":0,"cityCardTag":0,"deal":0,"endorse":1,"giftTag":"","hallType":[],"hallTypeVOList":[],"sell":1,"snack":1,"vipTag":"折扣卡"},"promotion":{"cardPromotionTag":"开卡特惠，首单2张最高立减4元","couponPromotionTag":"","merchantActivityTag":"","packShowActivityTag":"","platformActivityTag":"","starActivityTag":""},"showTimes":""},{"id":5505,"mark":0,"nm":"保利国际影城（祥腾店）","sellPrice":"","addr":"嘉定区真南路4368弄1-2号中冶祥腾城市广场4层（地铁11号线南翔站直达）","distance":"717.3km","tag":{"allowRefund":1,"buyout":0,"cityCardTag":0,"deal":0,"endorse":1,"giftTag":"","hallType":["巨幕厅"],"hallTypeVOList":[{"name":"巨幕厅","url":""}],"sell":1,"snack":1,"vipTag":"折扣卡"},"promotion":{"cardPromotionTag":"开卡特惠，首单2张最高立减6元","couponPromotionTag":"","merchantActivityTag":"","packShowActivityTag":"","platformActivityTag":"","starActivityTag":""},"showTimes":""},{"id":229,"mark":0,"nm":"国泰电影院","sellPrice":"","addr":"黄浦区淮海中路870号（茂名南路口）","distance":"733km","tag":{"allowRefund":1,"buyout":0,"cityCardTag":0,"deal":0,"endorse":1,"giftTag":"","hallType":["杜比全景声厅","4D厅"],"hallTypeVOList":[{"name":"杜比全景声厅","url":""},{"name":"4D厅","url":""}],"sell":1,"snack":1,"vipTag":"折扣卡"},"promotion":{"cardPromotionTag":"开卡特惠，首单2张最高立减6元","couponPromotionTag":"","merchantActivityTag":"","packShowActivityTag":"","platformActivityTag":"","starActivityTag":""},"showTimes":""},{"id":226,"mark":0,"nm":"万达影城（五角场万达广场店）","sellPrice":"","addr":"杨浦区淞沪路77号万达广场3层","distance":"733.2km","tag":{"allowRefund":1,"buyout":0,"cityCardTag":0,"deal":0,"endorse":1,"giftTag":"","hallType":["IMAX厅","Dolby Cinema厅","RealD 6FL厅","4DX厅"],"hallTypeVOList":[{"name":"IMAX厅","url":""},{"name":"Dolby Cinema厅","url":""},{"name":"RealD 6FL厅","url":""},{"name":"4DX厅","url":""}],"sell":1,"snack":0,"vipTag":"折扣卡"},"promotion":{"cardPromotionTag":"开卡特惠，14.9元起开卡","couponPromotionTag":"","merchantActivityTag":"","packShowActivityTag":"","platformActivityTag":"","starActivityTag":""},"showTimes":""},{"id":231,"mark":0,"nm":"星美国际影商城（正大IMAX店）","sellPrice":"","addr":"浦东新区陆家嘴西路168号正大广场东区8层（近东方明珠）","distance":"735.2km","tag":{"allowRefund":1,"buyout":0,"cityCardTag":0,"deal":0,"endorse":1,"giftTag":"","hallType":["IMAX厅"],"hallTypeVOList":[{"name":"IMAX厅","url":""}],"sell":1,"snack":1,"vipTag":""},"promotion":{"cardPromotionTag":"","couponPromotionTag":"","merchantActivityTag":"","packShowActivityTag":"","platformActivityTag":"","starActivityTag":""},"showTimes":""},{"id":111,"mark":0,"nm":"万达影城（周浦万达广场店）","sellPrice":"","addr":"浦东新区年家浜路518号万达广场4楼（近沪南公路）","distance":"747.5km","tag":{"allowRefund":1,"buyout":0,"cityCardTag":0,"deal":0,"endorse":1,"giftTag":"","hallType":["IMAX厅","RealD 6FL厅","4DX厅"],"hallTypeVOList":[{"name":"IMAX厅","url":""},{"name":"RealD 6FL厅","url":""},{"name":"4DX厅","url":""}],"sell":1,"snack":1,"vipTag":"折扣卡"},"promotion":{"cardPromotionTag":"开卡特惠，14.9元起开卡","couponPromotionTag":"","merchantActivityTag":"","packShowActivityTag":"","platformActivityTag":"","starActivityTag":""},"showTimes":""},{"id":2545,"mark":0,"nm":"CGV影城（安亭店）","sellPrice":"","addr":"嘉定区安亭镇墨玉南路1055号嘉亭荟城市生活广场3楼（11号线安亭站）","distance":"704.1km","tag":{"allowRefund":1,"buyout":0,"cityCardTag":0,"deal":0,"endorse":1,"giftTag":"","hallType":[],"hallTypeVOList":[],"sell":1,"snack":1,"vipTag":"折扣卡"},"promotion":{"cardPromotionTag":"","couponPromotionTag":"","merchantActivityTag":"","packShowActivityTag":"","platformActivityTag":"","starActivityTag":""},"showTimes":""}],"ct_pois":[{"ct_poi":"936879945111165696_a13895_c0","poiid":72404028},{"ct_poi":"936879945111165696_a24470_c1","poiid":164707173},{"ct_poi":"936879945111165696_a232_c2","poiid":31013},{"ct_poi":"936879945111165696_a52_c3","poiid":56010},{"ct_poi":"936879945111165696_a115_c4","poiid":426296},{"ct_poi":"936879945111165696_a33_c5","poiid":80666},{"ct_poi":"936879945111165696_a161_c6","poiid":47716},{"ct_poi":"936879945111165696_a12_c7","poiid":1219965},{"ct_poi":"936879945111165696_a147_c8","poiid":395048},{"ct_poi":"936879945111165696_a2444_c9","poiid":1541466},{"ct_poi":"936879945111165696_a171_c10","poiid":38458},{"ct_poi":"936879945111165696_a162_c11","poiid":403206},{"ct_poi":"936879945111165696_a158_c12","poiid":410794},{"ct_poi":"936879945111165696_a38_c13","poiid":1436312},{"ct_poi":"936879945111165696_a5505_c14","poiid":2426561},{"ct_poi":"936879945111165696_a229_c15","poiid":384951},{"ct_poi":"936879945111165696_a226_c16","poiid":1560395},{"ct_poi":"936879945111165696_a231_c17","poiid":58174},{"ct_poi":"936879945111165696_a111_c18","poiid":445362},{"ct_poi":"936879945111165696_a2545_c19","poiid":1574479}],"paging":{"hasMore":true,"limit":20,"offset":0,"total":445},"resId":"1581760546219"}